
T2F30 000:291 SEGGER J-Link V5.02f Log File (0000ms, 0261ms total)
T2F30 000:291 DLL Compiled: Oct  2 2015 20:51:34 (0000ms, 0261ms total)
T2F30 000:291 Logging started @ 2019-07-30 21:36 (0000ms, 0261ms total)
T2F30 000:291 JLINK_SetWarnOutHandler(...) (0000ms, 0261ms total)
T2F30 000:291 JLINK_OpenEx(...)
Firmware: J-Link ARM-OB STM32 compiled Aug 22 2012 19:52:04
Hardware: V7.00
S/N: 20090928
Feature(s): RDI,FlashDL,FlashBP,JFlash,GDBFull  returns O.K. (0261ms, 0522ms total)
T2F30 000:552 JLINK_SetErrorOutHandler(...) (0000ms, 0522ms total)
T2F30 000:552 JLINK_ExecCommand("ProjectFile = "C:\Users\Phuckks\Desktop\STM\STM32f103C8\ADC\Project\JLinkSettings.ini"", ...)  returns 0x00 (0000ms, 0522ms total)
T2F30 000:552 JLINK_ExecCommand("Device = STM32F103C8", ...)Device "STM32F103C8" selected.  returns 0x00 (0001ms, 0523ms total)
T2F30 000:553 JLINK_ExecCommand("DisableConnectionTimeout", ...)  returns 0x01 (0000ms, 0523ms total)
T2F30 000:553 JLINK_GetHardwareVersion()  returns 0x11170 (0000ms, 0523ms total)
T2F30 000:553 JLINK_GetDLLVersion()  returns 50206 (0000ms, 0523ms total)
T2F30 000:553 JLINK_GetFirmwareString(...) (0000ms, 0523ms total)
T2F30 000:553 JLINK_GetDLLVersion()  returns 50206 (0000ms, 0523ms total)
T2F30 000:553 JLINK_GetCompileDateTime() (0000ms, 0523ms total)
T2F30 000:553 JLINK_GetFirmwareString(...) (0000ms, 0523ms total)
T2F30 000:554 JLINK_GetHardwareVersion()  returns 0x11170 (0000ms, 0523ms total)
T2F30 000:554 JLINK_TIF_Select(JLINKARM_TIF_SWD)  returns 0x00 (0001ms, 0524ms total)
T2F30 000:555 JLINK_SetSpeed(5000) (0000ms, 0524ms total)
T2F30 000:555 JLINK_GetId() >0x108 TIF>Found SWD-DP with ID 0x1BA01477 >0x0D TIF> >0x28 TIF> >0x0D TIF> >0x28 TIF> >0x0D TIF> >0x21 TIF> >0x0D TIF> >0x28 TIF> >0x0D TIF> >0x28 TIF> >0x0D TIF> >0x28 TIF> >0x0D TIF> >0x21 TIF> >0x0D TIF> >0x21 TIF> >0x0D TIF> >0x28 TIF> >0x0D TIF> >0x21 TIF> >0x0D TIF> >0x21 TIF> >0x0D TIF> >0x28 TIF> >0x0D TIF> >0x21 TIF> >0x0D TIF> >0x21 TIF> >0x0D TIF> >0x28 TIF> >0x0D TIF> >0x21 TIF> >0x0D TIF> >0x21 TIF> >0x108 TIF>Found SWD-DP with ID 0x1BA01477 >0x0D TIF> >0x21 TIF>
 >0x0D TIF> >0x28 TIF> >0x0D TIF> >0x28 TIF> >0x0D TIF> >0x21 TIF> >0x0D TIF> >0x28 TIF> >0x0D TIF> >0x21 TIF> >0x0D TIF> >0x21 TIF> >0x0D TIF> >0x21 TIF> >0x0D TIF> >0x21 TIF> >0x0D TIF> >0x28 TIF> >0x0D TIF> >0x28 TIF> >0x0D TIF> >0x21 TIF> >0x0D TIF> >0x28 TIF> >0x0D TIF> >0x28 TIF> >0x0D TIF> >0x28 TIF> >0x0D TIF> >0x21 TIF> >0x0D TIF> >0x21 TIF> >0x0D TIF> >0x28 TIF> >0x0D TIF> >0x21 TIF> >0x0D TIF> >0x21 TIF>Found Cortex-M3 r1p1, Little endian. -- CPU_ReadMem(4 bytes @ 0xE000EDF0)
 -- CPU_ReadMem(4 bytes @ 0xE0002000)FPUnit: 6 code (BP) slots and 2 literal slots -- CPU_ReadMem(4 bytes @ 0xE000EDFC) -- CPU_ReadMem(4 bytes @ 0xE0001000) -- CPU_WriteMem(4 bytes @ 0xE0001000) -- CPU_ReadMem(4 bytes @ 0xE000ED88) -- CPU_WriteMem(4 bytes @ 0xE000ED88) -- CPU_ReadMem(4 bytes @ 0xE000ED88) -- CPU_WriteMem(4 bytes @ 0xE000ED88)CoreSight components:ROMTbl 0 @ E00FF000 -- CPU_ReadMem(16 bytes @ 0xE00FF000) -- CPU_ReadMem(16 bytes @ 0xE000EFF0) -- CPU_ReadMem(16 bytes @ 0xE000EFE0)
ROMTbl 0 [0]: FFF0F000, CID: B105E00D, PID: 001BB000 SCS -- CPU_ReadMem(16 bytes @ 0xE0001FF0) -- CPU_ReadMem(16 bytes @ 0xE0001FE0)ROMTbl 0 [1]: FFF02000, CID: B105E00D, PID: 001BB002 DWT -- CPU_ReadMem(16 bytes @ 0xE0002FF0) -- CPU_ReadMem(16 bytes @ 0xE0002FE0)ROMTbl 0 [2]: FFF03000, CID: B105E00D, PID: 000BB003 FPB -- CPU_ReadMem(16 bytes @ 0xE0000FF0) -- CPU_ReadMem(16 bytes @ 0xE0000FE0)ROMTbl 0 [3]: FFF01000, CID: B105E00D, PID: 001BB001 ITM -- CPU_ReadMem(16 bytes @ 0xE00FF010)
 -- CPU_ReadMem(16 bytes @ 0xE0040FF0) -- CPU_ReadMem(16 bytes @ 0xE0040FE0)ROMTbl 0 [4]: FFF41000, CID: B105900D, PID: 001BB923 TPIU-Lite >0x0D TIF> >0x21 TIF>  returns 0x1BA01477 (0032ms, 0556ms total)
T2F30 000:587 JLINK_GetDLLVersion()  returns 50206 (0000ms, 0556ms total)
T2F30 000:587 JLINK_CORE_GetFound()  returns 0x30000FF (0000ms, 0556ms total)
T2F30 000:587 JLINK_GetDebugInfo(0x100) -- Value=0xE00FF003  returns 0x00 (0000ms, 0556ms total)
T2F30 000:587 JLINK_GetDebugInfo(0x100) -- Value=0xE00FF003  returns 0x00 (0000ms, 0556ms total)
T2F30 000:587 JLINK_GetDebugInfo(0x101) -- Value=0x00000000  returns 0x00 (0000ms, 0556ms total)
T2F30 000:587 JLINK_ReadMem (0xE0041FF0, 0x0010 Bytes, ...) -- CPU is running -- CPU_ReadMem(16 bytes @ 0xE0041FF0) - Data: 00 00 00 00 00 00 00 00 00 00 00 00 00 00 00 00  returns 0x00 (0001ms, 0557ms total)
T2F30 000:588 JLINK_GetDebugInfo(0x102) -- Value=0x00000000  returns 0x00 (0000ms, 0557ms total)
T2F30 000:588 JLINK_GetDebugInfo(0x103) -- Value=0xE0040000  returns 0x00 (0000ms, 0557ms total)
T2F30 000:588 JLINK_GetDebugInfo(0x104) -- Value=0xE0000000  returns 0x00 (0000ms, 0557ms total)
T2F30 000:588 JLINK_GetDebugInfo(0x105) -- Value=0xE0001000  returns 0x00 (0000ms, 0557ms total)
T2F30 000:588 JLINK_GetDebugInfo(0x106) -- Value=0xE0002000  returns 0x00 (0000ms, 0557ms total)
T2F30 000:588 JLINK_GetDebugInfo(0x107) -- Value=0xE000E000  returns 0x00 (0000ms, 0557ms total)
T2F30 000:588 JLINK_GetDebugInfo(0x10C) -- Value=0xE000EDF0  returns 0x00 (0000ms, 0557ms total)
T2F30 000:588 JLINK_ReadMemU32(0xE000ED00, 0x0001 Items, ...) -- CPU is running -- CPU_ReadMem(4 bytes @ 0xE000ED00) - Data: 31 C2 1F 41  returns 0x01 (0001ms, 0558ms total)
T2F30 000:589 JLINK_SetResetType(JLINKARM_RESET_TYPE_NORMAL)  returns JLINKARM_RESET_TYPE_NORMAL (0000ms, 0558ms total)
T2F30 000:589 JLINK_Reset() -- CPU is running -- CPU_WriteMem(4 bytes @ 0xE000EDF0) -- CPU is running -- CPU_WriteMem(4 bytes @ 0xE000EDFC) >0x35 TIF> -- CPU is running -- CPU_WriteMem(4 bytes @ 0xE000ED0C) -- CPU is running -- CPU_ReadMem(4 bytes @ 0xE000EDF0) -- CPU is running -- CPU_ReadMem(4 bytes @ 0xE000EDF0) -- CPU is running -- CPU_WriteMem(4 bytes @ 0xE000EDF0) -- CPU is running -- CPU_WriteMem(4 bytes @ 0xE000EDFC) -- CPU is running -- CPU_ReadMem(4 bytes @ 0xE000EDF0)
 -- CPU_WriteMem(4 bytes @ 0xE0002000) -- CPU_ReadMem(4 bytes @ 0xE000EDFC) -- CPU_ReadMem(4 bytes @ 0xE0001000) (0018ms, 0576ms total)
T2F30 000:607 JLINK_ReadReg(R15 (PC))  returns 0x08000188 (0000ms, 0576ms total)
T2F30 000:607 JLINK_ReadReg(XPSR)  returns 0x01000000 (0000ms, 0576ms total)
T2F30 000:607 JLINK_Halt()  returns 0x00 (0000ms, 0576ms total)
T2F30 000:607 JLINK_IsHalted()  returns TRUE (0000ms, 0576ms total)
T2F30 000:607 JLINK_ReadMemU32(0xE000EDF0, 0x0001 Items, ...) -- CPU_ReadMem(4 bytes @ 0xE000EDF0) - Data: 03 00 03 00  returns 0x01 (0000ms, 0576ms total)
T2F30 000:607 JLINK_WriteU32(0xE000EDF0, 0xA05F0003) -- CPU_WriteMem(4 bytes @ 0xE000EDF0)  returns 0x00 (0001ms, 0577ms total)
T2F30 000:608 JLINK_WriteU32(0xE000EDFC, 0x01000000) -- CPU_WriteMem(4 bytes @ 0xE000EDFC)  returns 0x00 (0000ms, 0577ms total)
T2F30 000:609 JLINK_GetHWStatus(...)  returns 0x00 (0000ms, 0577ms total)
T2F30 000:609 JLINK_GetNumBPUnits(Type = 0xFFFFFF00)  returns 0x06 (0000ms, 0577ms total)
T2F30 000:609 JLINK_GetNumBPUnits(Type = 0xF0)  returns 0x2000 (0000ms, 0577ms total)
T2F30 000:609 JLINK_GetNumWPUnits()  returns 0x04 (0000ms, 0577ms total)
T2F30 000:610 JLINK_GetSpeed()  returns 0xFA0 (0000ms, 0577ms total)
T2F30 000:610 JLINK_ReadMemU32(0xE000E004, 0x0001 Items, ...) -- CPU_ReadMem(4 bytes @ 0xE000E004) - Data: 01 00 00 00  returns 0x01 (0000ms, 0577ms total)
T2F30 000:610 JLINK_ReadMemU32(0xE000E004, 0x0001 Items, ...) -- CPU_ReadMem(4 bytes @ 0xE000E004) - Data: 01 00 00 00  returns 0x01 (0001ms, 0578ms total)
T2F30 000:611 JLINK_WriteMem(0xE0001000, 0x001C Bytes, ...) - Data: 01 00 00 00 00 00 00 00 00 00 00 00 00 00 00 00 ... -- CPU_WriteMem(28 bytes @ 0xE0001000)  returns 0x1C (0001ms, 0579ms total)
T2F30 000:612 JLINK_ReadMem (0xE0001000, 0x001C Bytes, ...) -- CPU_ReadMem(28 bytes @ 0xE0001000) - Data: 01 00 00 40 00 00 00 00 00 00 00 00 00 00 00 00 ...  returns 0x00 (0001ms, 0580ms total)
T2F30 000:613 JLINK_ReadReg(R15 (PC))  returns 0x08000188 (0000ms, 0580ms total)
T2F30 000:613 JLINK_ReadReg(XPSR)  returns 0x01000000 (0000ms, 0580ms total)
T2F30 000:680 JLINK_SetResetType(JLINKARM_RESET_TYPE_NORMAL)  returns JLINKARM_RESET_TYPE_NORMAL (0000ms, 0580ms total)
T2F30 000:680 JLINK_Reset() -- CPU_WriteMem(4 bytes @ 0xE000EDF0) -- CPU_WriteMem(4 bytes @ 0xE000EDFC) >0x35 TIF> -- CPU_WriteMem(4 bytes @ 0xE000ED0C) -- CPU_ReadMem(4 bytes @ 0xE000EDF0) -- CPU_ReadMem(4 bytes @ 0xE000EDF0) -- CPU_WriteMem(4 bytes @ 0xE000EDF0) -- CPU_WriteMem(4 bytes @ 0xE000EDFC) -- CPU is running -- CPU_ReadMem(4 bytes @ 0xE000EDF0) -- CPU_WriteMem(4 bytes @ 0xE0002000) -- CPU_ReadMem(4 bytes @ 0xE000EDFC) -- CPU_ReadMem(4 bytes @ 0xE0001000) (0019ms, 0599ms total)
T2F30 000:699 JLINK_ReadReg(R15 (PC))  returns 0x08000188 (0000ms, 0599ms total)
T2F30 000:699 JLINK_ReadReg(XPSR)  returns 0x01000000 (0000ms, 0599ms total)
T2F30 000:699 JLINK_ReadMem (0x080000EC, 0x003C Bytes, ...) -- CPU_ReadMem(128 bytes @ 0x080000C0) -- Updating C cache (128 bytes @ 0x080000C0) -- Read from C cache (60 bytes @ 0x080000EC) - Data: 00 F0 02 F8 00 F0 3A F8 0A A0 90 E8 00 0C 82 44 ...  returns 0x00 (0002ms, 0601ms total)
T2F30 000:701 JLINK_ReadMem (0x08000128, 0x003C Bytes, ...) -- CPU_ReadMem(64 bytes @ 0x08000140) -- Updating C cache (64 bytes @ 0x08000140) -- Read from C cache (60 bytes @ 0x08000128) - Data: 10 3A 24 BF 78 C8 78 C1 FA D8 52 07 24 BF 30 C8 ...  returns 0x00 (0001ms, 0602ms total)
T2F30 000:702 JLINK_ReadMem (0x08000164, 0x003C Bytes, ...) -- CPU_ReadMem(64 bytes @ 0x08000180) -- Updating C cache (64 bytes @ 0x08000180) -- Read from C cache (60 bytes @ 0x08000164) - Data: 10 B5 10 BD 00 F0 31 F8 11 46 FF F7 F7 FF 00 F0 ...  returns 0x00 (0001ms, 0603ms total)
T2F30 000:804 JLINK_ReadMem (0x40012400, 0x004C Bytes, ...) -- CPU_ReadMem(76 bytes @ 0x40012400) - Data: 00 00 00 00 00 00 00 00 00 00 00 00 00 00 00 00 ...  returns 0x00 (0001ms, 0604ms total)
T2F30 000:805 JLINK_ReadMem (0x4001244C, 0x0004 Bytes, ...) -- CPU_ReadMem(4 bytes @ 0x4001244C) - Data: 00 00 00 00  returns 0x00 (0000ms, 0604ms total)
T2F30 002:105 JLINK_ReadMem (0x20000000, 0x0004 Bytes, ...) -- CPU_ReadMem(64 bytes @ 0x20000000) -- Updating C cache (64 bytes @ 0x20000000) -- Read from C cache (4 bytes @ 0x20000000) - Data: 04 00 00 00  returns 0x00 (0002ms, 0606ms total)
T2F30 002:118 JLINK_ReadMem (0x20000008, 0x0004 Bytes, ...) -- Read from C cache (4 bytes @ 0x20000008) - Data: 05 00 00 00  returns 0x00 (0000ms, 0606ms total)
T33D4 002:138 JLINK_SetBPEx(Addr = 0x080007C0, Type = 0xFFFFFFF2)  returns 0x00000001 (0000ms, 0606ms total)
T33D4 002:138 JLINK_Go() -- CPU_WriteMem(4 bytes @ 0xE0002000) -- CPU_ReadMem(4 bytes @ 0xE0001000) -- CPU_WriteMem(4 bytes @ 0xE0002008) -- CPU_WriteMem(4 bytes @ 0xE000200C) -- CPU_WriteMem(4 bytes @ 0xE0002010) -- CPU_WriteMem(4 bytes @ 0xE0002014) -- CPU_WriteMem(4 bytes @ 0xE0002018) -- CPU_WriteMem(4 bytes @ 0xE000201C) -- CPU_WriteMem(4 bytes @ 0xE0001004) (0005ms, 0611ms total)
T33D4 002:244 JLINK_IsHalted()  returns TRUE (0003ms, 0614ms total)
T33D4 002:247 JLINK_Halt()  returns 0x00 (0000ms, 0611ms total)
T33D4 002:247 JLINK_IsHalted()  returns TRUE (0000ms, 0611ms total)
T33D4 002:248 JLINK_IsHalted()  returns TRUE (0000ms, 0611ms total)
T33D4 002:248 JLINK_IsHalted()  returns TRUE (0000ms, 0611ms total)
T33D4 002:248 JLINK_ReadReg(R15 (PC))  returns 0x080007C0 (0000ms, 0611ms total)
T33D4 002:248 JLINK_ReadReg(XPSR)  returns 0x21000000 (0000ms, 0611ms total)
T33D4 002:248 JLINK_ClrBPEx(BPHandle = 0x00000001)  returns 0x00 (0000ms, 0611ms total)
T33D4 002:248 JLINK_ReadMemU32(0xE000ED30, 0x0001 Items, ...) -- CPU_ReadMem(4 bytes @ 0xE000ED30) - Data: 03 00 00 00  returns 0x01 (0000ms, 0611ms total)
T33D4 002:248 JLINK_ReadMemU32(0xE0001028, 0x0001 Items, ...) -- CPU_ReadMem(4 bytes @ 0xE0001028) - Data: 00 00 00 00  returns 0x01 (0001ms, 0612ms total)
T33D4 002:249 JLINK_ReadMemU32(0xE0001038, 0x0001 Items, ...) -- CPU_ReadMem(4 bytes @ 0xE0001038) - Data: 00 02 00 00  returns 0x01 (0000ms, 0612ms total)
T33D4 002:249 JLINK_ReadMemU32(0xE0001048, 0x0001 Items, ...) -- CPU_ReadMem(4 bytes @ 0xE0001048) - Data: 00 00 00 00  returns 0x01 (0001ms, 0613ms total)
T33D4 002:250 JLINK_ReadMemU32(0xE0001058, 0x0001 Items, ...) -- CPU_ReadMem(4 bytes @ 0xE0001058) - Data: 00 00 00 00  returns 0x01 (0000ms, 0613ms total)
T33D4 002:251 JLINK_ReadReg(R0)  returns 0x20000080 (0000ms, 0613ms total)
T33D4 002:251 JLINK_ReadReg(R1)  returns 0x20000280 (0000ms, 0613ms total)
T33D4 002:251 JLINK_ReadReg(R2)  returns 0x20000280 (0000ms, 0613ms total)
T33D4 002:251 JLINK_ReadReg(R3)  returns 0x20000280 (0000ms, 0613ms total)
T33D4 002:251 JLINK_ReadReg(R4)  returns 0x00000000 (0000ms, 0613ms total)
T33D4 002:251 JLINK_ReadReg(R5)  returns 0x20000020 (0000ms, 0613ms total)
T33D4 002:251 JLINK_ReadReg(R6)  returns 0x00000000 (0000ms, 0613ms total)
T33D4 002:251 JLINK_ReadReg(R7)  returns 0x00000000 (0000ms, 0613ms total)
T33D4 002:251 JLINK_ReadReg(R8)  returns 0x00000000 (0000ms, 0613ms total)
T33D4 002:251 JLINK_ReadReg(R9)  returns 0x20000160 (0000ms, 0613ms total)
T33D4 002:251 JLINK_ReadReg(R10)  returns 0x08000848 (0000ms, 0613ms total)
T33D4 002:251 JLINK_ReadReg(R11)  returns 0x00000000 (0000ms, 0613ms total)
T33D4 002:251 JLINK_ReadReg(R12)  returns 0x20000060 (0000ms, 0613ms total)
T33D4 002:251 JLINK_ReadReg(R13 (SP))  returns 0x20000680 (0000ms, 0613ms total)
T33D4 002:251 JLINK_ReadReg(R14)  returns 0x08000177 (0000ms, 0613ms total)
T33D4 002:251 JLINK_ReadReg(R15 (PC))  returns 0x080007C0 (0000ms, 0613ms total)
T33D4 002:251 JLINK_ReadReg(XPSR)  returns 0x21000000 (0000ms, 0613ms total)
T33D4 002:251 JLINK_ReadReg(MSP)  returns 0x20000680 (0000ms, 0613ms total)
T33D4 002:251 JLINK_ReadReg(PSP)  returns 0x20001000 (0000ms, 0613ms total)
T33D4 002:251 JLINK_ReadReg(CFBP)  returns 0x00000000 (0000ms, 0613ms total)
T2F30 002:252 JLINK_ReadMemU32(0xE0001004, 0x0001 Items, ...) -- CPU_ReadMem(4 bytes @ 0xE0001004) - Data: 53 17 00 00  returns 0x01 (0000ms, 0613ms total)
T2F30 002:252 JLINK_ReadMem (0x20000000, 0x0004 Bytes, ...) -- CPU_ReadMem(64 bytes @ 0x20000000) -- Updating C cache (64 bytes @ 0x20000000) -- Read from C cache (4 bytes @ 0x20000000) - Data: 00 00 00 00  returns 0x00 (0001ms, 0614ms total)
T2F30 002:254 JLINK_ReadMem (0x20000008, 0x0004 Bytes, ...) -- Read from C cache (4 bytes @ 0x20000008) - Data: 00 00 00 00  returns 0x00 (0000ms, 0615ms total)
T2F30 002:255 JLINK_ReadMem (0x40012400, 0x004C Bytes, ...) -- CPU_ReadMem(76 bytes @ 0x40012400) - Data: 00 00 00 00 00 00 00 00 00 00 00 00 00 00 00 00 ...  returns 0x00 (0001ms, 0616ms total)
T2F30 002:256 JLINK_ReadMem (0x4001244C, 0x0004 Bytes, ...) -- CPU_ReadMem(4 bytes @ 0x4001244C) - Data: 00 00 00 00  returns 0x00 (0000ms, 0616ms total)
T2F30 002:260 JLINK_ReadMem (0x080006C0, 0x003C Bytes, ...) -- CPU_ReadMem(64 bytes @ 0x080006C0) -- Updating C cache (64 bytes @ 0x080006C0) -- Read from C cache (60 bytes @ 0x080006C0) - Data: 00 20 00 22 21 4B 5B 68 03 F0 0C 01 21 B1 04 29 ...  returns 0x00 (0001ms, 0617ms total)
T2F30 002:261 JLINK_ReadMem (0x080006FC, 0x003C Bytes, ...) -- CPU_ReadMem(64 bytes @ 0x08000700) -- Updating C cache (64 bytes @ 0x08000700) -- Read from C cache (60 bytes @ 0x080006FC) - Data: 90 40 22 B9 15 4B 43 43 13 4C 23 60 0D E0 10 4B ...  returns 0x00 (0001ms, 0618ms total)
T2F30 002:262 JLINK_ReadMem (0x08000738, 0x003C Bytes, ...) -- CPU_ReadMem(64 bytes @ 0x08000740) -- Updating C cache (64 bytes @ 0x08000740) -- Read from C cache (60 bytes @ 0x08000738) - Data: 03 13 08 4C E1 5C 05 4B 1B 68 CB 40 03 4C 23 60 ...  returns 0x00 (0001ms, 0619ms total)
T2F30 002:263 JLINK_ReadMem (0x08000774, 0x003C Bytes, ...) -- CPU_ReadMem(64 bytes @ 0x08000780) -- Updating C cache (64 bytes @ 0x08000780) -- Read from C cache (60 bytes @ 0x08000774) - Data: 08 40 0E 49 48 60 08 46 00 68 0E 49 08 40 0B 49 ...  returns 0x00 (0002ms, 0621ms total)
T2F30 002:265 JLINK_ReadMem (0x080007BE, 0x0002 Bytes, ...) -- Read from C cache (2 bytes @ 0x080007BE) - Data: 00 E0  returns 0x00 (0000ms, 0621ms total)
T2F30 002:265 JLINK_ReadMem (0x080007C0, 0x003C Bytes, ...) -- CPU_ReadMem(64 bytes @ 0x080007C0) -- Updating C cache (64 bytes @ 0x080007C0) -- Read from C cache (60 bytes @ 0x080007C0) - Data: FF F7 CE FF FF F7 7A FF FF F7 40 FE FF F7 44 FD ...  returns 0x00 (0001ms, 0622ms total)
T33D4 004:208 JLINK_Go() -- CPU_ReadMem(4 bytes @ 0xE0001000) -- CPU_WriteMem(4 bytes @ 0xE0002008) (0003ms, 0625ms total)
T33D4 004:311 JLINK_IsHalted()  returns FALSE (0001ms, 0626ms total)
T33D4 004:412 JLINK_IsHalted()  returns FALSE (0000ms, 0625ms total)
T33D4 004:513 JLINK_IsHalted()  returns FALSE (0000ms, 0625ms total)
T33D4 004:613 JLINK_IsHalted()  returns FALSE (0001ms, 0626ms total)
T33D4 004:714 JLINK_IsHalted()  returns FALSE (0001ms, 0626ms total)
T33D4 004:815 JLINK_IsHalted()  returns FALSE (0001ms, 0626ms total)
T33D4 004:916 JLINK_IsHalted()  returns FALSE (0001ms, 0626ms total)
T33D4 005:017 JLINK_IsHalted()  returns FALSE (0001ms, 0626ms total)
T33D4 005:119 JLINK_IsHalted()  returns FALSE (0000ms, 0625ms total)
T33D4 005:220 JLINK_IsHalted()  returns FALSE (0000ms, 0625ms total)
T33D4 005:321 JLINK_IsHalted()  returns FALSE (0001ms, 0626ms total)
T33D4 005:422 JLINK_IsHalted()  returns FALSE (0000ms, 0625ms total)
T33D4 005:523 JLINK_IsHalted()  returns FALSE (0000ms, 0625ms total)
T33D4 005:623 JLINK_IsHalted()  returns FALSE (0001ms, 0626ms total)
T33D4 005:724 JLINK_IsHalted()  returns FALSE (0001ms, 0626ms total)
T33D4 005:825 JLINK_IsHalted()  returns FALSE (0001ms, 0626ms total)
T33D4 005:926 JLINK_IsHalted()  returns FALSE (0000ms, 0625ms total)
T33D4 006:026 JLINK_IsHalted()  returns FALSE (0001ms, 0626ms total)
T33D4 006:127 JLINK_IsHalted()  returns FALSE (0001ms, 0626ms total)
T33D4 006:228 JLINK_IsHalted()  returns FALSE (0001ms, 0626ms total)
T33D4 006:330 JLINK_IsHalted()  returns FALSE (0000ms, 0625ms total)
T33D4 006:430 JLINK_IsHalted()  returns FALSE (0001ms, 0626ms total)
T33D4 006:531 JLINK_IsHalted()  returns FALSE (0001ms, 0626ms total)
T33D4 006:632 JLINK_IsHalted()  returns FALSE (0001ms, 0626ms total)
T33D4 006:733 JLINK_IsHalted()  returns FALSE (0001ms, 0626ms total)
T33D4 006:834 JLINK_IsHalted()  returns FALSE (0001ms, 0626ms total)
T33D4 006:935 JLINK_IsHalted()  returns FALSE (0000ms, 0625ms total)
T33D4 007:035 JLINK_IsHalted()  returns FALSE (0001ms, 0626ms total)
T33D4 007:137 JLINK_IsHalted()  returns FALSE (0000ms, 0625ms total)
T33D4 007:238 JLINK_IsHalted()  returns FALSE (0001ms, 0626ms total)
T33D4 007:339 JLINK_IsHalted()  returns FALSE (0001ms, 0626ms total)
T33D4 007:440 JLINK_IsHalted()  returns FALSE (0001ms, 0626ms total)
T33D4 007:541 JLINK_IsHalted()  returns FALSE (0000ms, 0625ms total)
T33D4 007:642 JLINK_IsHalted()  returns FALSE (0000ms, 0625ms total)
T33D4 007:742 JLINK_IsHalted()  returns FALSE (0001ms, 0626ms total)
T33D4 007:843 JLINK_IsHalted()  returns FALSE (0001ms, 0626ms total)
T33D4 007:944 JLINK_IsHalted()  returns FALSE (0001ms, 0626ms total)
T33D4 008:045 JLINK_IsHalted()  returns FALSE (0001ms, 0626ms total)
T33D4 008:146 JLINK_Halt()  returns 0x00 (0004ms, 0629ms total)
T33D4 008:150 JLINK_IsHalted()  returns TRUE (0000ms, 0629ms total)
T33D4 008:150 JLINK_IsHalted()  returns TRUE (0000ms, 0629ms total)
T33D4 008:150 JLINK_IsHalted()  returns TRUE (0000ms, 0629ms total)
T33D4 008:150 JLINK_ReadReg(R15 (PC))  returns 0x08000442 (0000ms, 0629ms total)
T33D4 008:150 JLINK_ReadReg(XPSR)  returns 0x21000000 (0000ms, 0629ms total)
T33D4 008:150 JLINK_ReadMemU32(0xE000ED30, 0x0001 Items, ...) -- CPU_ReadMem(4 bytes @ 0xE000ED30) - Data: 01 00 00 00  returns 0x01 (0000ms, 0629ms total)
T33D4 008:150 JLINK_ReadMemU32(0xE0001028, 0x0001 Items, ...) -- CPU_ReadMem(4 bytes @ 0xE0001028) - Data: 00 00 00 00  returns 0x01 (0001ms, 0630ms total)
T33D4 008:151 JLINK_ReadMemU32(0xE0001038, 0x0001 Items, ...) -- CPU_ReadMem(4 bytes @ 0xE0001038) - Data: 00 02 00 00  returns 0x01 (0000ms, 0630ms total)
T33D4 008:151 JLINK_ReadMemU32(0xE0001048, 0x0001 Items, ...) -- CPU_ReadMem(4 bytes @ 0xE0001048) - Data: 00 00 00 00  returns 0x01 (0001ms, 0631ms total)
T33D4 008:152 JLINK_ReadMemU32(0xE0001058, 0x0001 Items, ...) -- CPU_ReadMem(4 bytes @ 0xE0001058) - Data: 00 00 00 00  returns 0x01 (0000ms, 0631ms total)
T33D4 008:152 JLINK_ReadReg(R0)  returns 0x001312A6 (0000ms, 0631ms total)
T33D4 008:152 JLINK_ReadReg(R1)  returns 0x000003E8 (0000ms, 0631ms total)
T33D4 008:152 JLINK_ReadReg(R2)  returns 0x00002EE0 (0000ms, 0631ms total)
T33D4 008:152 JLINK_ReadReg(R3)  returns 0x00000005 (0000ms, 0631ms total)
T33D4 008:152 JLINK_ReadReg(R4)  returns 0x0000000A (0000ms, 0631ms total)
T33D4 008:152 JLINK_ReadReg(R5)  returns 0x20000020 (0000ms, 0631ms total)
T33D4 008:152 JLINK_ReadReg(R6)  returns 0x00000000 (0000ms, 0631ms total)
T33D4 008:152 JLINK_ReadReg(R7)  returns 0x00000000 (0000ms, 0631ms total)
T33D4 008:152 JLINK_ReadReg(R8)  returns 0x00000000 (0000ms, 0631ms total)
T33D4 008:152 JLINK_ReadReg(R9)  returns 0x20000160 (0000ms, 0631ms total)
T33D4 008:152 JLINK_ReadReg(R10)  returns 0x08000848 (0000ms, 0631ms total)
T33D4 008:152 JLINK_ReadReg(R11)  returns 0x00000000 (0000ms, 0631ms total)
T33D4 008:152 JLINK_ReadReg(R12)  returns 0x00000002 (0001ms, 0632ms total)
T33D4 008:153 JLINK_ReadReg(R13 (SP))  returns 0x20000680 (0000ms, 0632ms total)
T33D4 008:153 JLINK_ReadReg(R14)  returns 0x08000817 (0000ms, 0632ms total)
T33D4 008:153 JLINK_ReadReg(R15 (PC))  returns 0x08000442 (0000ms, 0632ms total)
T33D4 008:153 JLINK_ReadReg(XPSR)  returns 0x21000000 (0000ms, 0632ms total)
T33D4 008:153 JLINK_ReadReg(MSP)  returns 0x20000680 (0000ms, 0632ms total)
T33D4 008:153 JLINK_ReadReg(PSP)  returns 0x20001000 (0000ms, 0632ms total)
T33D4 008:153 JLINK_ReadReg(CFBP)  returns 0x00000000 (0000ms, 0632ms total)
T2F30 008:153 JLINK_ReadMemU32(0xE0001004, 0x0001 Items, ...) -- CPU_ReadMem(4 bytes @ 0xE0001004) - Data: 81 3B E4 10  returns 0x01 (0001ms, 0633ms total)
T2F30 008:154 JLINK_ReadMem (0x20000000, 0x0004 Bytes, ...) -- CPU_ReadMem(64 bytes @ 0x20000000) -- Updating C cache (64 bytes @ 0x20000000) -- Read from C cache (4 bytes @ 0x20000000) - Data: D5 02 00 00  returns 0x00 (0002ms, 0635ms total)
T2F30 008:157 JLINK_ReadMem (0x20000008, 0x0004 Bytes, ...) -- Read from C cache (4 bytes @ 0x20000008) - Data: D5 02 00 00  returns 0x00 (0000ms, 0635ms total)
T2F30 008:158 JLINK_ReadMem (0x40012400, 0x004C Bytes, ...) -- CPU_ReadMem(76 bytes @ 0x40012400) - Data: 12 00 00 00 00 00 00 00 03 00 1E 00 00 00 00 00 ...  returns 0x00 (0001ms, 0636ms total)
T2F30 008:159 JLINK_ReadMem (0x4001244C, 0x0004 Bytes, ...) -- CPU_ReadMem(4 bytes @ 0x4001244C) - Data: D5 02 00 00  returns 0x00 (0001ms, 0637ms total)
T2F30 008:183 JLINK_ReadMem (0x08000442, 0x0002 Bytes, ...) -- CPU_ReadMem(64 bytes @ 0x08000440) -- Updating C cache (64 bytes @ 0x08000440) -- Read from C cache (2 bytes @ 0x08000442) - Data: 40 1E  returns 0x00 (0001ms, 0638ms total)
T2F30 008:184 JLINK_ReadMem (0x08000444, 0x003C Bytes, ...) -- Read from C cache (60 bytes @ 0x08000444) - Data: 00 28 FC D1 70 47 00 00 08 B5 01 21 10 20 00 F0 ...  returns 0x00 (0000ms, 0638ms total)
T33D4 013:600 JLINK_Go() -- CPU_ReadMem(4 bytes @ 0xE0001000) (0002ms, 0640ms total)
T33D4 013:702 JLINK_IsHalted()  returns FALSE (0001ms, 0641ms total)
T33D4 013:804 JLINK_IsHalted()  returns FALSE (0000ms, 0640ms total)
T33D4 013:904 JLINK_IsHalted()  returns FALSE (0001ms, 0641ms total)
T33D4 014:005 JLINK_IsHalted()  returns FALSE (0001ms, 0641ms total)
T33D4 014:106 JLINK_IsHalted()  returns FALSE (0001ms, 0641ms total)
T33D4 014:207 JLINK_IsHalted()  returns FALSE (0000ms, 0640ms total)
T33D4 014:308 JLINK_IsHalted()  returns FALSE (0001ms, 0641ms total)
T33D4 014:409 JLINK_IsHalted()  returns FALSE (0001ms, 0641ms total)
T33D4 014:510 JLINK_IsHalted()  returns FALSE (0001ms, 0641ms total)
T33D4 014:611 JLINK_IsHalted()  returns FALSE (0001ms, 0641ms total)
T33D4 014:712 JLINK_IsHalted()  returns FALSE (0001ms, 0641ms total)
T33D4 014:813 JLINK_IsHalted()  returns FALSE (0001ms, 0641ms total)
T33D4 014:914 JLINK_IsHalted()  returns FALSE (0001ms, 0641ms total)
T33D4 015:016 JLINK_IsHalted()  returns FALSE (0001ms, 0641ms total)
T33D4 015:117 JLINK_IsHalted()  returns FALSE (0001ms, 0641ms total)
T33D4 015:218 JLINK_IsHalted()  returns FALSE (0001ms, 0641ms total)
T33D4 015:319 JLINK_IsHalted()  returns FALSE (0001ms, 0641ms total)
T33D4 015:420 JLINK_IsHalted()  returns FALSE (0001ms, 0641ms total)
T33D4 015:522 JLINK_IsHalted()  returns FALSE (0000ms, 0640ms total)
T33D4 015:623 JLINK_IsHalted()  returns FALSE (0001ms, 0641ms total)
T33D4 015:724 JLINK_IsHalted()  returns FALSE (0001ms, 0641ms total)
T33D4 015:825 JLINK_IsHalted()  returns FALSE (0001ms, 0641ms total)
T33D4 015:926 JLINK_IsHalted()  returns FALSE (0001ms, 0641ms total)
T33D4 016:028 JLINK_IsHalted()  returns FALSE (0001ms, 0641ms total)
T33D4 016:129 JLINK_IsHalted()  returns FALSE (0001ms, 0641ms total)
T33D4 016:230 JLINK_IsHalted()  returns FALSE (0000ms, 0640ms total)
T33D4 016:331 JLINK_IsHalted()  returns FALSE (0001ms, 0641ms total)
T33D4 016:432 JLINK_IsHalted()  returns FALSE (0001ms, 0641ms total)
T33D4 016:533 JLINK_IsHalted()  returns FALSE (0001ms, 0641ms total)
T33D4 016:634 JLINK_IsHalted()  returns FALSE (0001ms, 0641ms total)
T33D4 016:735 JLINK_Halt()  returns 0x00 (0003ms, 0643ms total)
T33D4 016:738 JLINK_IsHalted()  returns TRUE (0000ms, 0643ms total)
T33D4 016:738 JLINK_IsHalted()  returns TRUE (0000ms, 0643ms total)
T33D4 016:738 JLINK_IsHalted()  returns TRUE (0000ms, 0643ms total)
T33D4 016:738 JLINK_ReadReg(R15 (PC))  returns 0x08000446 (0000ms, 0643ms total)
T33D4 016:738 JLINK_ReadReg(XPSR)  returns 0x21000000 (0000ms, 0643ms total)
T33D4 016:738 JLINK_ReadMemU32(0xE000ED30, 0x0001 Items, ...) -- CPU_ReadMem(4 bytes @ 0xE000ED30) - Data: 01 00 00 00  returns 0x01 (0001ms, 0644ms total)
T33D4 016:739 JLINK_ReadMemU32(0xE0001028, 0x0001 Items, ...) -- CPU_ReadMem(4 bytes @ 0xE0001028) - Data: 00 00 00 00  returns 0x01 (0000ms, 0644ms total)
T33D4 016:739 JLINK_ReadMemU32(0xE0001038, 0x0001 Items, ...) -- CPU_ReadMem(4 bytes @ 0xE0001038) - Data: 00 02 00 00  returns 0x01 (0001ms, 0645ms total)
T33D4 016:740 JLINK_ReadMemU32(0xE0001048, 0x0001 Items, ...) -- CPU_ReadMem(4 bytes @ 0xE0001048) - Data: 00 00 00 00  returns 0x01 (0001ms, 0646ms total)
T33D4 016:741 JLINK_ReadMemU32(0xE0001058, 0x0001 Items, ...) -- CPU_ReadMem(4 bytes @ 0xE0001058) - Data: 00 00 00 00  returns 0x01 (0000ms, 0646ms total)
T33D4 016:741 JLINK_ReadReg(R0)  returns 0x0000134B (0000ms, 0646ms total)
T33D4 016:741 JLINK_ReadReg(R1)  returns 0x000003E8 (0000ms, 0646ms total)
T33D4 016:741 JLINK_ReadReg(R2)  returns 0x00002EE0 (0000ms, 0646ms total)
T33D4 016:741 JLINK_ReadReg(R3)  returns 0x00000005 (0000ms, 0646ms total)
T33D4 016:741 JLINK_ReadReg(R4)  returns 0x0000000A (0000ms, 0646ms total)
T33D4 016:741 JLINK_ReadReg(R5)  returns 0x20000020 (0000ms, 0646ms total)
T33D4 016:741 JLINK_ReadReg(R6)  returns 0x00000000 (0000ms, 0646ms total)
T33D4 016:741 JLINK_ReadReg(R7)  returns 0x00000000 (0000ms, 0646ms total)
T33D4 016:741 JLINK_ReadReg(R8)  returns 0x00000000 (0000ms, 0646ms total)
T33D4 016:741 JLINK_ReadReg(R9)  returns 0x20000160 (0000ms, 0646ms total)
T33D4 016:741 JLINK_ReadReg(R10)  returns 0x08000848 (0000ms, 0646ms total)
T33D4 016:741 JLINK_ReadReg(R11)  returns 0x00000000 (0000ms, 0646ms total)
T33D4 016:741 JLINK_ReadReg(R12)  returns 0x00000002 (0000ms, 0646ms total)
T33D4 016:741 JLINK_ReadReg(R13 (SP))  returns 0x20000680 (0000ms, 0646ms total)
T33D4 016:741 JLINK_ReadReg(R14)  returns 0x08000817 (0000ms, 0646ms total)
T33D4 016:741 JLINK_ReadReg(R15 (PC))  returns 0x08000446 (0000ms, 0646ms total)
T33D4 016:741 JLINK_ReadReg(XPSR)  returns 0x21000000 (0000ms, 0646ms total)
T33D4 016:741 JLINK_ReadReg(MSP)  returns 0x20000680 (0000ms, 0646ms total)
T33D4 016:741 JLINK_ReadReg(PSP)  returns 0x20001000 (0000ms, 0646ms total)
T33D4 016:741 JLINK_ReadReg(CFBP)  returns 0x00000000 (0001ms, 0647ms total)
T2F30 016:742 JLINK_ReadMemU32(0xE0001004, 0x0001 Items, ...) -- CPU_ReadMem(4 bytes @ 0xE0001004) - Data: 66 1D 57 1E  returns 0x01 (0000ms, 0647ms total)
T2F30 016:742 JLINK_ReadMem (0x20000000, 0x0004 Bytes, ...) -- CPU_ReadMem(64 bytes @ 0x20000000) -- Updating C cache (64 bytes @ 0x20000000) -- Read from C cache (4 bytes @ 0x20000000) - Data: 5D 05 00 00  returns 0x00 (0001ms, 0648ms total)
T2F30 016:744 JLINK_ReadMem (0x20000008, 0x0004 Bytes, ...) -- Read from C cache (4 bytes @ 0x20000008) - Data: 60 05 00 00  returns 0x00 (0000ms, 0648ms total)
T2F30 016:744 JLINK_ReadMem (0x40012400, 0x004C Bytes, ...) -- CPU_ReadMem(76 bytes @ 0x40012400) - Data: 12 00 00 00 00 00 00 00 03 00 1E 00 00 00 00 00 ...  returns 0x00 (0002ms, 0650ms total)
T2F30 016:746 JLINK_ReadMem (0x4001244C, 0x0004 Bytes, ...) -- CPU_ReadMem(4 bytes @ 0x4001244C) - Data: 62 05 00 00  returns 0x00 (0000ms, 0650ms total)
T2F30 016:756 JLINK_ReadMem (0x08000442, 0x0002 Bytes, ...) -- CPU_ReadMem(64 bytes @ 0x08000440) -- Updating C cache (64 bytes @ 0x08000440) -- Read from C cache (2 bytes @ 0x08000442) - Data: 40 1E  returns 0x00 (0001ms, 0651ms total)
T2F30 016:757 JLINK_ReadMem (0x08000444, 0x003C Bytes, ...) -- Read from C cache (60 bytes @ 0x08000444) - Data: 00 28 FC D1 70 47 00 00 08 B5 01 21 10 20 00 F0 ...  returns 0x00 (0000ms, 0651ms total)
T33D4 018:391 JLINK_Go() -- CPU_ReadMem(4 bytes @ 0xE0001000) (0002ms, 0653ms total)
T33D4 018:494 JLINK_IsHalted()  returns FALSE (0000ms, 0653ms total)
T33D4 018:595 JLINK_IsHalted()  returns FALSE (0001ms, 0654ms total)
T33D4 018:696 JLINK_IsHalted()  returns FALSE (0001ms, 0654ms total)
T33D4 018:797 JLINK_IsHalted()  returns FALSE (0001ms, 0654ms total)
T33D4 018:899 JLINK_IsHalted()  returns FALSE (0000ms, 0653ms total)
T33D4 018:999 JLINK_IsHalted()  returns FALSE (0001ms, 0654ms total)
T33D4 019:100 JLINK_IsHalted()  returns FALSE (0000ms, 0653ms total)
T33D4 019:201 JLINK_IsHalted()  returns FALSE (0000ms, 0653ms total)
T33D4 019:302 JLINK_IsHalted()  returns FALSE (0000ms, 0653ms total)
T33D4 019:403 JLINK_IsHalted()  returns FALSE (0001ms, 0654ms total)
T33D4 019:504 JLINK_IsHalted()  returns FALSE (0001ms, 0654ms total)
T33D4 019:605 JLINK_IsHalted()  returns FALSE (0001ms, 0654ms total)
T33D4 019:706 JLINK_IsHalted()  returns FALSE (0000ms, 0653ms total)
T33D4 019:807 JLINK_IsHalted()  returns FALSE (0000ms, 0653ms total)
T33D4 019:908 JLINK_Halt()  returns 0x00 (0004ms, 0657ms total)
T33D4 019:912 JLINK_IsHalted()  returns TRUE (0000ms, 0657ms total)
T33D4 019:912 JLINK_IsHalted()  returns TRUE (0000ms, 0657ms total)
T33D4 019:912 JLINK_IsHalted()  returns TRUE (0000ms, 0657ms total)
T33D4 019:912 JLINK_ReadReg(R15 (PC))  returns 0x08000446 (0000ms, 0657ms total)
T33D4 019:912 JLINK_ReadReg(XPSR)  returns 0x21000000 (0000ms, 0657ms total)
T33D4 019:912 JLINK_ReadMemU32(0xE000ED30, 0x0001 Items, ...) -- CPU_ReadMem(4 bytes @ 0xE000ED30) - Data: 01 00 00 00  returns 0x01 (0000ms, 0657ms total)
T33D4 019:912 JLINK_ReadMemU32(0xE0001028, 0x0001 Items, ...) -- CPU_ReadMem(4 bytes @ 0xE0001028) - Data: 00 00 00 00  returns 0x01 (0001ms, 0658ms total)
T33D4 019:913 JLINK_ReadMemU32(0xE0001038, 0x0001 Items, ...) -- CPU_ReadMem(4 bytes @ 0xE0001038) - Data: 00 02 00 00  returns 0x01 (0001ms, 0659ms total)
T33D4 019:914 JLINK_ReadMemU32(0xE0001048, 0x0001 Items, ...) -- CPU_ReadMem(4 bytes @ 0xE0001048) - Data: 00 00 00 00  returns 0x01 (0000ms, 0659ms total)
T33D4 019:914 JLINK_ReadMemU32(0xE0001058, 0x0001 Items, ...) -- CPU_ReadMem(4 bytes @ 0xE0001058) - Data: 00 00 00 00  returns 0x01 (0001ms, 0660ms total)
T33D4 019:915 JLINK_ReadReg(R0)  returns 0x005C7BEE (0000ms, 0660ms total)
T33D4 019:915 JLINK_ReadReg(R1)  returns 0x000003E8 (0000ms, 0660ms total)
T33D4 019:915 JLINK_ReadReg(R2)  returns 0x00002EE0 (0000ms, 0660ms total)
T33D4 019:915 JLINK_ReadReg(R3)  returns 0x00000005 (0000ms, 0660ms total)
T33D4 019:915 JLINK_ReadReg(R4)  returns 0x0000000A (0000ms, 0660ms total)
T33D4 019:915 JLINK_ReadReg(R5)  returns 0x20000020 (0000ms, 0660ms total)
T33D4 019:915 JLINK_ReadReg(R6)  returns 0x00000000 (0000ms, 0660ms total)
T33D4 019:915 JLINK_ReadReg(R7)  returns 0x00000000 (0000ms, 0660ms total)
T33D4 019:915 JLINK_ReadReg(R8)  returns 0x00000000 (0000ms, 0660ms total)
T33D4 019:915 JLINK_ReadReg(R9)  returns 0x20000160 (0000ms, 0660ms total)
T33D4 019:915 JLINK_ReadReg(R10)  returns 0x08000848 (0000ms, 0660ms total)
T33D4 019:915 JLINK_ReadReg(R11)  returns 0x00000000 (0000ms, 0660ms total)
T33D4 019:915 JLINK_ReadReg(R12)  returns 0x00000002 (0001ms, 0661ms total)
T33D4 019:916 JLINK_ReadReg(R13 (SP))  returns 0x20000680 (0000ms, 0661ms total)
T33D4 019:916 JLINK_ReadReg(R14)  returns 0x08000817 (0000ms, 0661ms total)
T33D4 019:916 JLINK_ReadReg(R15 (PC))  returns 0x08000446 (0000ms, 0661ms total)
T33D4 019:916 JLINK_ReadReg(XPSR)  returns 0x21000000 (0000ms, 0661ms total)
T33D4 019:916 JLINK_ReadReg(MSP)  returns 0x20000680 (0000ms, 0661ms total)
T33D4 019:916 JLINK_ReadReg(PSP)  returns 0x20001000 (0000ms, 0661ms total)
T33D4 019:916 JLINK_ReadReg(CFBP)  returns 0x00000000 (0000ms, 0661ms total)
T2F30 019:916 JLINK_ReadMemU32(0xE0001004, 0x0001 Items, ...) -- CPU_ReadMem(4 bytes @ 0xE0001004) - Data: 6E ED D7 24  returns 0x01 (0001ms, 0662ms total)
T2F30 019:917 JLINK_ReadMem (0x20000000, 0x0004 Bytes, ...) -- CPU_ReadMem(64 bytes @ 0x20000000) -- Updating C cache (64 bytes @ 0x20000000) -- Read from C cache (4 bytes @ 0x20000000) - Data: 61 05 00 00  returns 0x00 (0001ms, 0663ms total)
T2F30 019:919 JLINK_ReadMem (0x20000008, 0x0004 Bytes, ...) -- Read from C cache (4 bytes @ 0x20000008) - Data: 64 05 00 00  returns 0x00 (0000ms, 0663ms total)
T2F30 019:920 JLINK_ReadMem (0x40012400, 0x004C Bytes, ...) -- CPU_ReadMem(76 bytes @ 0x40012400) - Data: 12 00 00 00 00 00 00 00 03 00 1E 00 00 00 00 00 ...  returns 0x00 (0001ms, 0664ms total)
T2F30 019:921 JLINK_ReadMem (0x4001244C, 0x0004 Bytes, ...) -- CPU_ReadMem(4 bytes @ 0x4001244C) - Data: 61 05 00 00  returns 0x00 (0001ms, 0665ms total)
T2F30 063:304 JLINK_ReadMem (0x08000440, 0x003C Bytes, ...) -- CPU_ReadMem(64 bytes @ 0x08000440) -- Updating C cache (64 bytes @ 0x08000440) -- Read from C cache (60 bytes @ 0x08000440) - Data: 00 E0 40 1E 00 28 FC D1 70 47 00 00 08 B5 01 21 ...  returns 0x00 (0001ms, 0666ms total)
T33D4 065:825 JLINK_Go() -- CPU_ReadMem(4 bytes @ 0xE0001000) (0002ms, 0668ms total)
T33D4 065:928 JLINK_IsHalted()  returns FALSE (0000ms, 0668ms total)
T33D4 066:029 JLINK_IsHalted()  returns FALSE (0000ms, 0668ms total)
T33D4 066:129 JLINK_IsHalted()  returns FALSE (0001ms, 0669ms total)
T33D4 066:230 JLINK_IsHalted()  returns FALSE (0000ms, 0668ms total)
T33D4 066:331 JLINK_IsHalted()  returns FALSE (0000ms, 0668ms total)
T33D4 066:432 JLINK_IsHalted()  returns FALSE (0000ms, 0668ms total)
T33D4 066:533 JLINK_IsHalted()  returns FALSE (0000ms, 0668ms total)
T33D4 066:634 JLINK_IsHalted()  returns FALSE (0000ms, 0668ms total)
T33D4 066:735 JLINK_IsHalted()  returns FALSE (0000ms, 0668ms total)
T33D4 066:836 JLINK_IsHalted()  returns FALSE (0000ms, 0668ms total)
T33D4 066:937 JLINK_IsHalted()  returns FALSE (0001ms, 0669ms total)
T33D4 067:038 JLINK_IsHalted()  returns FALSE (0000ms, 0668ms total)
T33D4 067:138 JLINK_IsHalted()  returns FALSE (0001ms, 0669ms total)
T33D4 067:239 JLINK_IsHalted()  returns FALSE (0000ms, 0668ms total)
T33D4 067:339 JLINK_Halt()  returns 0x00 (0004ms, 0672ms total)
T33D4 067:343 JLINK_IsHalted()  returns TRUE (0000ms, 0672ms total)
T33D4 067:343 JLINK_IsHalted()  returns TRUE (0000ms, 0672ms total)
T33D4 067:343 JLINK_IsHalted()  returns TRUE (0000ms, 0672ms total)
T33D4 067:343 JLINK_ReadReg(R15 (PC))  returns 0x08000446 (0000ms, 0672ms total)
T33D4 067:343 JLINK_ReadReg(XPSR)  returns 0x21000000 (0000ms, 0672ms total)
T33D4 067:343 JLINK_ReadMemU32(0xE000ED30, 0x0001 Items, ...) -- CPU_ReadMem(4 bytes @ 0xE000ED30) - Data: 01 00 00 00  returns 0x01 (0001ms, 0673ms total)
T33D4 067:344 JLINK_ReadMemU32(0xE0001028, 0x0001 Items, ...) -- CPU_ReadMem(4 bytes @ 0xE0001028) - Data: 00 00 00 00  returns 0x01 (0000ms, 0673ms total)
T33D4 067:344 JLINK_ReadMemU32(0xE0001038, 0x0001 Items, ...) -- CPU_ReadMem(4 bytes @ 0xE0001038) - Data: 00 02 00 00  returns 0x01 (0000ms, 0673ms total)
T33D4 067:344 JLINK_ReadMemU32(0xE0001048, 0x0001 Items, ...) -- CPU_ReadMem(4 bytes @ 0xE0001048) - Data: 00 00 00 00  returns 0x01 (0001ms, 0674ms total)
T33D4 067:345 JLINK_ReadMemU32(0xE0001058, 0x0001 Items, ...) -- CPU_ReadMem(4 bytes @ 0xE0001058) - Data: 00 00 00 00  returns 0x01 (0001ms, 0675ms total)
T33D4 067:346 JLINK_ReadReg(R0)  returns 0x000076D5 (0000ms, 0675ms total)
T33D4 067:346 JLINK_ReadReg(R1)  returns 0x000003E8 (0000ms, 0675ms total)
T33D4 067:346 JLINK_ReadReg(R2)  returns 0x00002EE0 (0000ms, 0675ms total)
T33D4 067:346 JLINK_ReadReg(R3)  returns 0x00000005 (0000ms, 0675ms total)
T33D4 067:346 JLINK_ReadReg(R4)  returns 0x0000000A (0000ms, 0675ms total)
T33D4 067:346 JLINK_ReadReg(R5)  returns 0x20000020 (0000ms, 0675ms total)
T33D4 067:347 JLINK_ReadReg(R6)  returns 0x00000000 (0000ms, 0675ms total)
T33D4 067:347 JLINK_ReadReg(R7)  returns 0x00000000 (0000ms, 0675ms total)
T33D4 067:347 JLINK_ReadReg(R8)  returns 0x00000000 (0000ms, 0675ms total)
T33D4 067:347 JLINK_ReadReg(R9)  returns 0x20000160 (0000ms, 0675ms total)
T33D4 067:347 JLINK_ReadReg(R10)  returns 0x08000848 (0000ms, 0675ms total)
T33D4 067:347 JLINK_ReadReg(R11)  returns 0x00000000 (0000ms, 0675ms total)
T33D4 067:347 JLINK_ReadReg(R12)  returns 0x00000002 (0000ms, 0675ms total)
T33D4 067:347 JLINK_ReadReg(R13 (SP))  returns 0x20000680 (0000ms, 0675ms total)
T33D4 067:347 JLINK_ReadReg(R14)  returns 0x08000817 (0000ms, 0675ms total)
T33D4 067:347 JLINK_ReadReg(R15 (PC))  returns 0x08000446 (0000ms, 0675ms total)
T33D4 067:347 JLINK_ReadReg(XPSR)  returns 0x21000000 (0000ms, 0675ms total)
T33D4 067:347 JLINK_ReadReg(MSP)  returns 0x20000680 (0000ms, 0675ms total)
T33D4 067:347 JLINK_ReadReg(PSP)  returns 0x20001000 (0000ms, 0675ms total)
T33D4 067:347 JLINK_ReadReg(CFBP)  returns 0x00000000 (0000ms, 0675ms total)
T2F30 067:347 JLINK_ReadMemU32(0xE0001004, 0x0001 Items, ...) -- CPU_ReadMem(4 bytes @ 0xE0001004) - Data: F1 AD 55 2B  returns 0x01 (0001ms, 0676ms total)
T2F30 067:348 JLINK_ReadMem (0x20000000, 0x0004 Bytes, ...) -- CPU_ReadMem(64 bytes @ 0x20000000) -- Updating C cache (64 bytes @ 0x20000000) -- Read from C cache (4 bytes @ 0x20000000) - Data: 13 08 00 00  returns 0x00 (0001ms, 0677ms total)
T2F30 067:350 JLINK_ReadMem (0x20000008, 0x0004 Bytes, ...) -- Read from C cache (4 bytes @ 0x20000008) - Data: 12 08 00 00  returns 0x00 (0000ms, 0677ms total)
T2F30 067:350 JLINK_ReadMem (0x40012400, 0x004C Bytes, ...) -- CPU_ReadMem(76 bytes @ 0x40012400) - Data: 12 00 00 00 00 00 00 00 03 00 1E 00 00 00 00 00 ...  returns 0x00 (0002ms, 0679ms total)
T2F30 067:352 JLINK_ReadMem (0x4001244C, 0x0004 Bytes, ...) -- CPU_ReadMem(4 bytes @ 0x4001244C) - Data: 13 08 00 00  returns 0x00 (0000ms, 0679ms total)
T2F30 067:361 JLINK_ReadMem (0x08000440, 0x003C Bytes, ...) -- CPU_ReadMem(64 bytes @ 0x08000440) -- Updating C cache (64 bytes @ 0x08000440) -- Read from C cache (60 bytes @ 0x08000440) - Data: 00 E0 40 1E 00 28 FC D1 70 47 00 00 08 B5 01 21 ...  returns 0x00 (0001ms, 0680ms total)
T33D4 070:343 JLINK_Go() -- CPU_ReadMem(4 bytes @ 0xE0001000) (0002ms, 0682ms total)
T33D4 070:446 JLINK_IsHalted()  returns FALSE (0000ms, 0682ms total)
T33D4 070:547 JLINK_IsHalted()  returns FALSE (0000ms, 0682ms total)
T33D4 070:648 JLINK_IsHalted()  returns FALSE (0000ms, 0682ms total)
T33D4 070:748 JLINK_IsHalted()  returns FALSE (0001ms, 0683ms total)
T33D4 070:850 JLINK_IsHalted()  returns FALSE (0000ms, 0682ms total)
T33D4 070:950 JLINK_IsHalted()  returns FALSE (0001ms, 0683ms total)
T33D4 071:052 JLINK_IsHalted()  returns FALSE (0000ms, 0682ms total)
T33D4 071:153 JLINK_IsHalted()  returns FALSE (0000ms, 0682ms total)
T33D4 071:254 JLINK_IsHalted()  returns FALSE (0000ms, 0682ms total)
T33D4 071:354 JLINK_IsHalted()  returns FALSE (0001ms, 0683ms total)
T33D4 071:456 JLINK_IsHalted()  returns FALSE (0000ms, 0682ms total)
T33D4 071:556 JLINK_IsHalted()  returns FALSE (0001ms, 0683ms total)
T33D4 071:658 JLINK_IsHalted()  returns FALSE (0000ms, 0682ms total)
T33D4 071:759 JLINK_IsHalted()  returns FALSE (0000ms, 0682ms total)
T33D4 071:859 JLINK_IsHalted()  returns FALSE (0001ms, 0683ms total)
T33D4 071:960 JLINK_IsHalted()  returns FALSE (0001ms, 0683ms total)
T33D4 072:061 JLINK_IsHalted()  returns FALSE (0001ms, 0683ms total)
T33D4 072:162 JLINK_IsHalted()  returns FALSE (0001ms, 0683ms total)
T33D4 072:263 JLINK_IsHalted()  returns FALSE (0001ms, 0683ms total)
T33D4 072:364 JLINK_IsHalted()  returns FALSE (0001ms, 0683ms total)
T33D4 072:465 JLINK_IsHalted()  returns FALSE (0000ms, 0682ms total)
T33D4 072:566 JLINK_IsHalted()  returns FALSE (0000ms, 0682ms total)
T33D4 072:667 JLINK_IsHalted()  returns FALSE (0001ms, 0683ms total)
T33D4 072:768 JLINK_IsHalted()  returns FALSE (0000ms, 0682ms total)
T33D4 072:869 JLINK_IsHalted()  returns FALSE (0000ms, 0682ms total)
T33D4 072:970 JLINK_IsHalted()  returns FALSE (0000ms, 0682ms total)
T33D4 073:071 JLINK_IsHalted()  returns FALSE (0001ms, 0683ms total)
T33D4 073:172 JLINK_IsHalted()  returns FALSE (0000ms, 0682ms total)
T33D4 073:273 JLINK_IsHalted()  returns FALSE (0000ms, 0682ms total)
T33D4 073:374 JLINK_IsHalted()  returns FALSE (0000ms, 0682ms total)
T33D4 073:476 JLINK_IsHalted()  returns FALSE (0000ms, 0682ms total)
T33D4 073:576 JLINK_IsHalted()  returns FALSE (0001ms, 0683ms total)
T33D4 073:677 JLINK_IsHalted()  returns FALSE (0001ms, 0683ms total)
T33D4 073:779 JLINK_IsHalted()  returns FALSE (0000ms, 0682ms total)
T33D4 073:880 JLINK_IsHalted()  returns FALSE (0001ms, 0683ms total)
T33D4 073:981 JLINK_IsHalted()  returns FALSE (0000ms, 0682ms total)
T33D4 074:082 JLINK_IsHalted()  returns FALSE (0000ms, 0682ms total)
T33D4 074:183 JLINK_IsHalted()  returns FALSE (0000ms, 0682ms total)
T33D4 074:284 JLINK_IsHalted()  returns FALSE (0000ms, 0682ms total)
T33D4 074:385 JLINK_IsHalted()  returns FALSE (0001ms, 0683ms total)
T33D4 074:487 JLINK_IsHalted()  returns FALSE (0001ms, 0683ms total)
T33D4 074:588 JLINK_IsHalted()  returns FALSE (0001ms, 0683ms total)
T33D4 074:689 JLINK_IsHalted()  returns FALSE (0001ms, 0683ms total)
T33D4 074:790 JLINK_IsHalted()  returns FALSE (0000ms, 0682ms total)
T33D4 074:891 JLINK_IsHalted()  returns FALSE (0001ms, 0683ms total)
T33D4 074:992 JLINK_IsHalted()  returns FALSE (0001ms, 0683ms total)
T33D4 075:093 JLINK_IsHalted()  returns FALSE (0001ms, 0683ms total)
T33D4 075:194 JLINK_IsHalted()  returns FALSE (0001ms, 0683ms total)
T33D4 075:296 JLINK_IsHalted()  returns FALSE (0001ms, 0683ms total)
T33D4 075:397 JLINK_IsHalted()  returns FALSE (0001ms, 0683ms total)
T33D4 075:499 JLINK_IsHalted()  returns FALSE (0000ms, 0682ms total)
T33D4 075:600 JLINK_IsHalted()  returns FALSE (0000ms, 0682ms total)
T33D4 075:700 JLINK_IsHalted()  returns FALSE (0001ms, 0683ms total)
T33D4 075:802 JLINK_IsHalted()  returns FALSE (0000ms, 0682ms total)
T33D4 075:903 JLINK_IsHalted()  returns FALSE (0000ms, 0682ms total)
T33D4 076:004 JLINK_IsHalted()  returns FALSE (0000ms, 0682ms total)
T33D4 076:105 JLINK_IsHalted()  returns FALSE (0001ms, 0683ms total)
T33D4 076:206 JLINK_IsHalted()  returns FALSE (0000ms, 0682ms total)
T33D4 076:307 JLINK_IsHalted()  returns FALSE (0000ms, 0682ms total)
T33D4 076:408 JLINK_IsHalted()  returns FALSE (0001ms, 0683ms total)
T33D4 076:509 JLINK_IsHalted()  returns FALSE (0001ms, 0683ms total)
T33D4 076:610 JLINK_IsHalted()  returns FALSE (0001ms, 0683ms total)
T33D4 076:711 JLINK_IsHalted()  returns FALSE (0001ms, 0683ms total)
T33D4 076:812 JLINK_IsHalted()  returns FALSE (0001ms, 0683ms total)
T33D4 076:913 JLINK_IsHalted()  returns FALSE (0001ms, 0683ms total)
T33D4 077:014 JLINK_IsHalted()  returns FALSE (0001ms, 0683ms total)
T33D4 077:115 JLINK_IsHalted()  returns FALSE (0001ms, 0683ms total)
T33D4 077:216 JLINK_IsHalted()  returns FALSE (0001ms, 0683ms total)
T33D4 077:318 JLINK_IsHalted()  returns FALSE (0001ms, 0683ms total)
T33D4 077:419 JLINK_IsHalted()  returns FALSE (0001ms, 0683ms total)
T33D4 077:520 JLINK_IsHalted()  returns FALSE (0001ms, 0683ms total)
T33D4 077:621 JLINK_IsHalted()  returns FALSE (0001ms, 0683ms total)
T33D4 077:722 JLINK_IsHalted()  returns FALSE (0000ms, 0682ms total)
T33D4 077:822 JLINK_IsHalted()  returns FALSE (0001ms, 0683ms total)
T33D4 077:924 JLINK_IsHalted()  returns FALSE (0000ms, 0682ms total)
T33D4 078:025 JLINK_IsHalted()  returns FALSE (0000ms, 0682ms total)
T33D4 078:126 JLINK_IsHalted()  returns FALSE (0001ms, 0683ms total)
T33D4 078:227 JLINK_IsHalted()  returns FALSE (0000ms, 0682ms total)
T33D4 078:328 JLINK_IsHalted()  returns FALSE (0001ms, 0683ms total)
T33D4 078:429 JLINK_IsHalted()  returns FALSE (0001ms, 0683ms total)
T33D4 078:530 JLINK_IsHalted()  returns FALSE (0000ms, 0682ms total)
T33D4 078:631 JLINK_IsHalted()  returns FALSE (0000ms, 0682ms total)
T33D4 078:732 JLINK_IsHalted()  returns FALSE (0000ms, 0682ms total)
T33D4 078:832 JLINK_IsHalted()  returns FALSE (0001ms, 0683ms total)
T33D4 078:933 JLINK_IsHalted()  returns FALSE (0001ms, 0683ms total)
T33D4 079:034 JLINK_IsHalted()  returns FALSE (0001ms, 0683ms total)
T33D4 079:135 JLINK_IsHalted()  returns FALSE (0001ms, 0683ms total)
T33D4 079:236 JLINK_IsHalted()  returns FALSE (0001ms, 0683ms total)
T33D4 079:337 JLINK_IsHalted()  returns FALSE (0001ms, 0683ms total)
T33D4 079:438 JLINK_IsHalted()  returns FALSE (0000ms, 0682ms total)
T33D4 079:539 JLINK_IsHalted()  returns FALSE (0000ms, 0682ms total)
T33D4 079:639 JLINK_IsHalted()  returns FALSE (0001ms, 0683ms total)
T33D4 079:740 JLINK_IsHalted()  returns FALSE (0000ms, 0682ms total)
T33D4 079:840 JLINK_IsHalted()  returns FALSE (0001ms, 0683ms total)
T33D4 079:941 JLINK_IsHalted()  returns FALSE (0001ms, 0683ms total)
T33D4 080:042 JLINK_IsHalted()  returns FALSE (0000ms, 0682ms total)
T33D4 080:142 JLINK_IsHalted()  returns FALSE (0001ms, 0683ms total)
T33D4 080:243 JLINK_IsHalted()  returns FALSE (0001ms, 0683ms total)
T33D4 080:344 JLINK_IsHalted()  returns FALSE (0000ms, 0682ms total)
T33D4 080:445 JLINK_IsHalted()  returns FALSE (0001ms, 0683ms total)
T33D4 080:546 JLINK_IsHalted()  returns FALSE (0001ms, 0683ms total)
T33D4 080:647 JLINK_IsHalted()  returns FALSE (0001ms, 0683ms total)
T33D4 080:748 JLINK_IsHalted()  returns FALSE (0000ms, 0682ms total)
T33D4 080:849 JLINK_IsHalted()  returns FALSE (0000ms, 0682ms total)
T33D4 080:950 JLINK_IsHalted()  returns FALSE (0000ms, 0682ms total)
T33D4 081:051 JLINK_IsHalted()  returns FALSE (0000ms, 0682ms total)
T33D4 081:152 JLINK_IsHalted()  returns FALSE (0000ms, 0682ms total)
T33D4 081:253 JLINK_IsHalted()  returns FALSE (0001ms, 0683ms total)
T33D4 081:355 JLINK_IsHalted()  returns FALSE (0000ms, 0682ms total)
T33D4 081:456 JLINK_IsHalted()  returns FALSE (0001ms, 0683ms total)
T33D4 081:557 JLINK_IsHalted()  returns FALSE (0000ms, 0682ms total)
T33D4 081:658 JLINK_IsHalted()  returns FALSE (0000ms, 0682ms total)
T33D4 081:759 JLINK_IsHalted()  returns FALSE (0001ms, 0683ms total)
T33D4 081:860 JLINK_IsHalted()  returns FALSE (0000ms, 0682ms total)
T33D4 081:961 JLINK_IsHalted()  returns FALSE (0000ms, 0682ms total)
T33D4 082:061 JLINK_IsHalted()  returns FALSE (0001ms, 0683ms total)
T33D4 082:162 JLINK_IsHalted()  returns FALSE (0001ms, 0683ms total)
T33D4 082:263 JLINK_IsHalted()  returns FALSE (0001ms, 0683ms total)
T33D4 082:365 JLINK_IsHalted()  returns FALSE (0000ms, 0682ms total)
T33D4 082:465 JLINK_IsHalted()  returns FALSE (0002ms, 0684ms total)
T33D4 082:567 JLINK_IsHalted()  returns FALSE (0000ms, 0682ms total)
T33D4 082:668 JLINK_IsHalted()  returns FALSE (0001ms, 0683ms total)
T33D4 082:769 JLINK_IsHalted()  returns FALSE (0001ms, 0683ms total)
T33D4 082:871 JLINK_IsHalted()  returns FALSE (0000ms, 0682ms total)
T33D4 082:972 JLINK_IsHalted()  returns FALSE (0001ms, 0683ms total)
T33D4 083:073 JLINK_IsHalted()  returns FALSE (0000ms, 0682ms total)
T33D4 083:174 JLINK_IsHalted()  returns FALSE (0000ms, 0682ms total)
T33D4 083:275 JLINK_IsHalted()  returns FALSE (0000ms, 0682ms total)
T33D4 083:376 JLINK_IsHalted()  returns FALSE (0001ms, 0683ms total)
T33D4 083:477 JLINK_IsHalted()  returns FALSE (0001ms, 0683ms total)
T33D4 083:578 JLINK_IsHalted()  returns FALSE (0001ms, 0683ms total)
T33D4 083:680 JLINK_IsHalted()  returns FALSE (0000ms, 0682ms total)
T33D4 083:781 JLINK_IsHalted()  returns FALSE (0000ms, 0682ms total)
T33D4 083:881 JLINK_IsHalted()  returns FALSE (0001ms, 0683ms total)
T33D4 083:982 JLINK_IsHalted()  returns FALSE (0001ms, 0683ms total)
T33D4 084:083 JLINK_IsHalted()  returns FALSE (0001ms, 0683ms total)
T33D4 084:185 JLINK_IsHalted()  returns FALSE (0000ms, 0682ms total)
T33D4 084:286 JLINK_IsHalted()  returns FALSE (0000ms, 0682ms total)
T33D4 084:387 JLINK_IsHalted()  returns FALSE (0000ms, 0682ms total)
T33D4 084:488 JLINK_IsHalted()  returns FALSE (0001ms, 0683ms total)
T33D4 084:589 JLINK_IsHalted()  returns FALSE (0001ms, 0683ms total)
T33D4 084:690 JLINK_IsHalted()  returns FALSE (0001ms, 0683ms total)
T33D4 084:791 JLINK_IsHalted()  returns FALSE (0001ms, 0683ms total)
T33D4 084:892 JLINK_IsHalted()  returns FALSE (0001ms, 0683ms total)
T33D4 084:993 JLINK_IsHalted()  returns FALSE (0001ms, 0683ms total)
T33D4 085:094 JLINK_IsHalted()  returns FALSE (0001ms, 0683ms total)
T33D4 085:196 JLINK_IsHalted()  returns FALSE (0001ms, 0683ms total)
T33D4 085:297 JLINK_IsHalted()  returns FALSE (0001ms, 0683ms total)
T33D4 085:398 JLINK_IsHalted()  returns FALSE (0000ms, 0682ms total)
T33D4 085:499 JLINK_IsHalted()  returns FALSE (0001ms, 0683ms total)
T33D4 085:600 JLINK_IsHalted()  returns FALSE (0001ms, 0683ms total)
T33D4 085:701 JLINK_IsHalted()  returns FALSE (0001ms, 0683ms total)
T33D4 085:802 JLINK_IsHalted()  returns FALSE (0001ms, 0683ms total)
T33D4 085:903 JLINK_IsHalted()  returns FALSE (0001ms, 0683ms total)
T33D4 086:004 JLINK_IsHalted()  returns FALSE (0000ms, 0682ms total)
T33D4 086:105 JLINK_IsHalted()  returns FALSE (0001ms, 0683ms total)
T33D4 086:206 JLINK_IsHalted()  returns FALSE (0001ms, 0683ms total)
T33D4 086:307 JLINK_IsHalted()  returns FALSE (0001ms, 0683ms total)
T33D4 086:408 JLINK_IsHalted()  returns FALSE (0001ms, 0683ms total)
T33D4 086:509 JLINK_IsHalted()  returns FALSE (0001ms, 0683ms total)
T33D4 086:610 JLINK_IsHalted()  returns FALSE (0001ms, 0683ms total)
T33D4 086:711 JLINK_IsHalted()  returns FALSE (0001ms, 0683ms total)
T33D4 086:812 JLINK_IsHalted()  returns FALSE (0001ms, 0683ms total)
T33D4 086:913 JLINK_IsHalted()  returns FALSE (0001ms, 0683ms total)
T33D4 087:014 JLINK_IsHalted()  returns FALSE (0001ms, 0683ms total)
T33D4 087:115 JLINK_IsHalted()  returns FALSE (0000ms, 0682ms total)
T33D4 087:216 JLINK_IsHalted()  returns FALSE (0001ms, 0683ms total)
T33D4 087:318 JLINK_IsHalted()  returns FALSE (0000ms, 0682ms total)
T33D4 087:419 JLINK_IsHalted()  returns FALSE (0000ms, 0682ms total)
T33D4 087:520 JLINK_IsHalted()  returns FALSE (0000ms, 0682ms total)
T33D4 087:621 JLINK_IsHalted()  returns FALSE (0000ms, 0682ms total)
T33D4 087:721 JLINK_IsHalted()  returns FALSE (0001ms, 0683ms total)
T33D4 087:823 JLINK_IsHalted()  returns FALSE (0000ms, 0682ms total)
T33D4 087:924 JLINK_IsHalted()  returns FALSE (0000ms, 0682ms total)
T33D4 088:025 JLINK_IsHalted()  returns FALSE (0001ms, 0683ms total)
T33D4 088:126 JLINK_IsHalted()  returns FALSE (0001ms, 0683ms total)
T33D4 088:227 JLINK_IsHalted()  returns FALSE (0001ms, 0683ms total)
T33D4 088:328 JLINK_IsHalted()  returns FALSE (0001ms, 0683ms total)
T33D4 088:430 JLINK_IsHalted()  returns FALSE (0000ms, 0682ms total)
T33D4 088:531 JLINK_IsHalted()  returns FALSE (0001ms, 0683ms total)
T33D4 088:632 JLINK_IsHalted()  returns FALSE (0000ms, 0682ms total)
T33D4 088:733 JLINK_IsHalted()  returns FALSE (0000ms, 0682ms total)
T33D4 088:833 JLINK_IsHalted()  returns FALSE (0001ms, 0683ms total)
T33D4 088:935 JLINK_IsHalted()  returns FALSE (0000ms, 0682ms total)
T33D4 089:036 JLINK_IsHalted()  returns FALSE (0000ms, 0682ms total)
T33D4 089:137 JLINK_IsHalted()  returns FALSE (0001ms, 0683ms total)
T33D4 089:238 JLINK_IsHalted()  returns FALSE (0001ms, 0683ms total)
T33D4 089:339 JLINK_IsHalted()  returns FALSE (0000ms, 0682ms total)
T33D4 089:440 JLINK_IsHalted()  returns FALSE (0000ms, 0682ms total)
T33D4 089:540 JLINK_IsHalted()  returns FALSE (0001ms, 0683ms total)
T33D4 089:641 JLINK_IsHalted()  returns FALSE (0001ms, 0683ms total)
T33D4 089:742 JLINK_IsHalted()  returns FALSE (0001ms, 0683ms total)
T33D4 089:844 JLINK_IsHalted()  returns FALSE (0000ms, 0682ms total)
T33D4 089:944 JLINK_IsHalted()  returns FALSE (0002ms, 0684ms total)
T33D4 090:046 JLINK_IsHalted()  returns FALSE (0001ms, 0683ms total)
T33D4 090:147 JLINK_IsHalted()  returns FALSE (0001ms, 0683ms total)
T33D4 090:248 JLINK_IsHalted()  returns FALSE (0001ms, 0683ms total)
T33D4 090:349 JLINK_IsHalted()  returns FALSE (0000ms, 0682ms total)
T33D4 090:450 JLINK_IsHalted()  returns FALSE (0001ms, 0683ms total)
T33D4 090:551 JLINK_IsHalted()  returns FALSE (0001ms, 0683ms total)
T33D4 090:653 JLINK_IsHalted()  returns FALSE (0000ms, 0682ms total)
T33D4 090:754 JLINK_IsHalted()  returns FALSE (0001ms, 0683ms total)
T33D4 090:855 JLINK_IsHalted()  returns FALSE (0001ms, 0683ms total)
T33D4 090:956 JLINK_IsHalted()  returns FALSE (0001ms, 0683ms total)
T33D4 091:058 JLINK_IsHalted()  returns FALSE (0001ms, 0683ms total)
T33D4 091:159 JLINK_IsHalted()  returns FALSE (0001ms, 0683ms total)
T33D4 091:261 JLINK_IsHalted()  returns FALSE (0000ms, 0682ms total)
T33D4 091:362 JLINK_IsHalted()  returns FALSE (0001ms, 0683ms total)
T33D4 091:463 JLINK_IsHalted()  returns FALSE (0000ms, 0682ms total)
T33D4 091:564 JLINK_IsHalted()  returns FALSE (0001ms, 0683ms total)
T33D4 091:665 JLINK_IsHalted()  returns FALSE (0001ms, 0683ms total)
T33D4 091:766 JLINK_IsHalted()  returns FALSE (0001ms, 0683ms total)
T33D4 091:867 JLINK_IsHalted()  returns FALSE (0001ms, 0683ms total)
T33D4 091:968 JLINK_IsHalted()  returns FALSE (0001ms, 0683ms total)
T33D4 092:069 JLINK_IsHalted()  returns FALSE (0001ms, 0683ms total)
T33D4 092:170 JLINK_IsHalted()  returns FALSE (0001ms, 0683ms total)
T33D4 092:271 JLINK_IsHalted()  returns FALSE (0001ms, 0683ms total)
T33D4 092:372 JLINK_IsHalted()  returns FALSE (0000ms, 0682ms total)
T33D4 092:473 JLINK_IsHalted()  returns FALSE (0000ms, 0682ms total)
T33D4 092:574 JLINK_IsHalted()  returns FALSE (0001ms, 0683ms total)
T33D4 092:675 JLINK_IsHalted()  returns FALSE (0001ms, 0683ms total)
T33D4 092:776 JLINK_IsHalted()  returns FALSE (0001ms, 0683ms total)
T33D4 092:877 JLINK_IsHalted()  returns FALSE (0001ms, 0683ms total)
T33D4 092:978 JLINK_IsHalted()  returns FALSE (0000ms, 0682ms total)
T33D4 093:079 JLINK_IsHalted()  returns FALSE (0001ms, 0683ms total)
T33D4 093:181 JLINK_IsHalted()  returns FALSE (0000ms, 0682ms total)
T33D4 093:281 JLINK_IsHalted()  returns FALSE (0001ms, 0683ms total)
T33D4 093:382 JLINK_IsHalted()  returns FALSE (0001ms, 0683ms total)
T33D4 093:483 JLINK_IsHalted()  returns FALSE (0001ms, 0683ms total)
T33D4 093:584 JLINK_IsHalted()  returns FALSE (0001ms, 0683ms total)
T33D4 093:685 JLINK_IsHalted()  returns FALSE (0001ms, 0683ms total)
T33D4 093:786 JLINK_IsHalted()  returns FALSE (0001ms, 0683ms total)
T33D4 093:888 JLINK_IsHalted()  returns FALSE (0000ms, 0682ms total)
T33D4 093:989 JLINK_IsHalted()  returns FALSE (0000ms, 0682ms total)
T33D4 094:090 JLINK_IsHalted()  returns FALSE (0000ms, 0682ms total)
T33D4 094:190 JLINK_IsHalted()  returns FALSE (0001ms, 0683ms total)
T33D4 094:291 JLINK_IsHalted()  returns FALSE (0001ms, 0683ms total)
T33D4 094:392 JLINK_IsHalted()  returns FALSE (0001ms, 0683ms total)
T33D4 094:493 JLINK_IsHalted()  returns FALSE (0001ms, 0683ms total)
T33D4 094:594 JLINK_IsHalted()  returns FALSE (0001ms, 0683ms total)
T33D4 094:695 JLINK_IsHalted()  returns FALSE (0001ms, 0683ms total)
T33D4 094:797 JLINK_IsHalted()  returns FALSE (0000ms, 0682ms total)
T33D4 094:898 JLINK_IsHalted()  returns FALSE (0000ms, 0682ms total)
T33D4 094:999 JLINK_IsHalted()  returns FALSE (0000ms, 0682ms total)
T33D4 095:099 JLINK_IsHalted()  returns FALSE (0001ms, 0683ms total)
T33D4 095:200 JLINK_IsHalted()  returns FALSE (0001ms, 0683ms total)
T33D4 095:301 JLINK_IsHalted()  returns FALSE (0001ms, 0683ms total)
T33D4 095:402 JLINK_IsHalted()  returns FALSE (0001ms, 0683ms total)
T33D4 095:503 JLINK_IsHalted()  returns FALSE (0001ms, 0683ms total)
T33D4 095:604 JLINK_IsHalted()  returns FALSE (0001ms, 0683ms total)
T33D4 095:705 JLINK_IsHalted()  returns FALSE (0001ms, 0683ms total)
T33D4 095:806 JLINK_IsHalted()  returns FALSE (0001ms, 0683ms total)
T33D4 095:908 JLINK_IsHalted()  returns FALSE (0001ms, 0683ms total)
T33D4 096:009 JLINK_IsHalted()  returns FALSE (0000ms, 0682ms total)
T33D4 096:110 JLINK_IsHalted()  returns FALSE (0000ms, 0682ms total)
T33D4 096:211 JLINK_IsHalted()  returns FALSE (0000ms, 0682ms total)
T33D4 096:311 JLINK_IsHalted()  returns FALSE (0001ms, 0683ms total)
T33D4 096:412 JLINK_IsHalted()  returns FALSE (0001ms, 0683ms total)
T33D4 096:513 JLINK_IsHalted()  returns FALSE (0001ms, 0683ms total)
T33D4 096:614 JLINK_IsHalted()  returns FALSE (0001ms, 0683ms total)
T33D4 096:715 JLINK_IsHalted()  returns FALSE (0001ms, 0683ms total)
T33D4 096:816 JLINK_IsHalted()  returns FALSE (0001ms, 0683ms total)
T33D4 096:917 JLINK_IsHalted()  returns FALSE (0000ms, 0682ms total)
T33D4 097:018 JLINK_IsHalted()  returns FALSE (0001ms, 0683ms total)
T33D4 097:120 JLINK_IsHalted()  returns FALSE (0000ms, 0682ms total)
T33D4 097:221 JLINK_IsHalted()  returns FALSE (0000ms, 0682ms total)
T33D4 097:321 JLINK_IsHalted()  returns FALSE (0001ms, 0683ms total)
T33D4 097:422 JLINK_IsHalted()  returns FALSE (0001ms, 0683ms total)
T33D4 097:523 JLINK_IsHalted()  returns FALSE (0001ms, 0683ms total)
T33D4 097:624 JLINK_IsHalted()  returns FALSE (0001ms, 0683ms total)
T33D4 097:725 JLINK_IsHalted()  returns FALSE (0001ms, 0683ms total)
T33D4 097:826 JLINK_IsHalted()  returns FALSE (0001ms, 0683ms total)
T33D4 097:927 JLINK_IsHalted()  returns FALSE (0001ms, 0683ms total)
T33D4 098:028 JLINK_IsHalted()  returns FALSE (0001ms, 0683ms total)
T33D4 098:129 JLINK_IsHalted()  returns FALSE (0001ms, 0683ms total)
T33D4 098:230 JLINK_IsHalted()  returns FALSE (0001ms, 0683ms total)
T33D4 098:331 JLINK_IsHalted()  returns FALSE (0001ms, 0683ms total)
T33D4 098:432 JLINK_IsHalted()  returns FALSE (0001ms, 0683ms total)
T33D4 098:533 JLINK_IsHalted()  returns FALSE (0000ms, 0682ms total)
T33D4 098:634 JLINK_IsHalted()  returns FALSE (0000ms, 0682ms total)
T33D4 098:735 JLINK_IsHalted()  returns FALSE (0000ms, 0682ms total)
T33D4 098:836 JLINK_IsHalted()  returns FALSE (0000ms, 0682ms total)
T33D4 098:936 JLINK_IsHalted()  returns FALSE (0001ms, 0683ms total)
T33D4 099:037 JLINK_IsHalted()  returns FALSE (0001ms, 0683ms total)
T33D4 099:139 JLINK_IsHalted()  returns FALSE (0000ms, 0682ms total)
T33D4 099:240 JLINK_IsHalted()  returns FALSE (0000ms, 0682ms total)
T33D4 099:341 JLINK_IsHalted()  returns FALSE (0001ms, 0683ms total)
T33D4 099:442 JLINK_IsHalted()  returns FALSE (0001ms, 0683ms total)
T33D4 099:543 JLINK_IsHalted()  returns FALSE (0001ms, 0683ms total)
T33D4 099:645 JLINK_IsHalted()  returns FALSE (0000ms, 0682ms total)
T33D4 099:746 JLINK_IsHalted()  returns FALSE (0001ms, 0683ms total)
T33D4 099:847 JLINK_IsHalted()  returns FALSE (0001ms, 0683ms total)
T33D4 099:948 JLINK_IsHalted()  returns FALSE (0000ms, 0682ms total)
T33D4 100:049 JLINK_IsHalted()  returns FALSE (0000ms, 0682ms total)
T33D4 100:149 JLINK_IsHalted()  returns FALSE (0001ms, 0683ms total)
T33D4 100:250 JLINK_IsHalted()  returns FALSE (0001ms, 0683ms total)
T33D4 100:352 JLINK_IsHalted()  returns FALSE (0000ms, 0682ms total)
T33D4 100:452 JLINK_Halt()  returns 0x00 (0004ms, 0686ms total)
T33D4 100:456 JLINK_IsHalted()  returns TRUE (0000ms, 0686ms total)
T33D4 100:456 JLINK_IsHalted()  returns TRUE (0000ms, 0686ms total)
T33D4 100:456 JLINK_IsHalted()  returns TRUE (0000ms, 0686ms total)
T33D4 100:456 JLINK_ReadReg(R15 (PC))  returns 0x08000442 (0000ms, 0686ms total)
T33D4 100:456 JLINK_ReadReg(XPSR)  returns 0x21000000 (0000ms, 0686ms total)
T33D4 100:456 JLINK_ReadMemU32(0xE000ED30, 0x0001 Items, ...) -- CPU_ReadMem(4 bytes @ 0xE000ED30) - Data: 01 00 00 00  returns 0x01 (0001ms, 0687ms total)
T33D4 100:457 JLINK_ReadMemU32(0xE0001028, 0x0001 Items, ...) -- CPU_ReadMem(4 bytes @ 0xE0001028) - Data: 00 00 00 00  returns 0x01 (0000ms, 0687ms total)
T33D4 100:457 JLINK_ReadMemU32(0xE0001038, 0x0001 Items, ...) -- CPU_ReadMem(4 bytes @ 0xE0001038) - Data: 00 02 00 00  returns 0x01 (0001ms, 0688ms total)
T33D4 100:458 JLINK_ReadMemU32(0xE0001048, 0x0001 Items, ...) -- CPU_ReadMem(4 bytes @ 0xE0001048) - Data: 00 00 00 00  returns 0x01 (0000ms, 0688ms total)
T33D4 100:458 JLINK_ReadMemU32(0xE0001058, 0x0001 Items, ...) -- CPU_ReadMem(4 bytes @ 0xE0001058) - Data: 00 00 00 00  returns 0x01 (0001ms, 0689ms total)
T33D4 100:459 JLINK_ReadReg(R0)  returns 0x002357AA (0000ms, 0689ms total)
T33D4 100:459 JLINK_ReadReg(R1)  returns 0x000003E8 (0000ms, 0689ms total)
T33D4 100:459 JLINK_ReadReg(R2)  returns 0x00002EE0 (0000ms, 0689ms total)
T33D4 100:459 JLINK_ReadReg(R3)  returns 0x00000005 (0000ms, 0689ms total)
T33D4 100:459 JLINK_ReadReg(R4)  returns 0x0000000A (0000ms, 0689ms total)
T33D4 100:459 JLINK_ReadReg(R5)  returns 0x20000020 (0000ms, 0689ms total)
T33D4 100:459 JLINK_ReadReg(R6)  returns 0x00000000 (0000ms, 0689ms total)
T33D4 100:459 JLINK_ReadReg(R7)  returns 0x00000000 (0000ms, 0689ms total)
T33D4 100:459 JLINK_ReadReg(R8)  returns 0x00000000 (0000ms, 0689ms total)
T33D4 100:459 JLINK_ReadReg(R9)  returns 0x20000160 (0000ms, 0689ms total)
T33D4 100:459 JLINK_ReadReg(R10)  returns 0x08000848 (0000ms, 0689ms total)
T33D4 100:459 JLINK_ReadReg(R11)  returns 0x00000000 (0000ms, 0689ms total)
T33D4 100:459 JLINK_ReadReg(R12)  returns 0x00000002 (0000ms, 0689ms total)
T33D4 100:459 JLINK_ReadReg(R13 (SP))  returns 0x20000680 (0000ms, 0689ms total)
T33D4 100:459 JLINK_ReadReg(R14)  returns 0x08000817 (0000ms, 0689ms total)
T33D4 100:459 JLINK_ReadReg(R15 (PC))  returns 0x08000442 (0000ms, 0689ms total)
T33D4 100:459 JLINK_ReadReg(XPSR)  returns 0x21000000 (0000ms, 0689ms total)
T33D4 100:459 JLINK_ReadReg(MSP)  returns 0x20000680 (0000ms, 0689ms total)
T33D4 100:459 JLINK_ReadReg(PSP)  returns 0x20001000 (0000ms, 0689ms total)
T33D4 100:459 JLINK_ReadReg(CFBP)  returns 0x00000000 (0000ms, 0689ms total)
T2F30 100:460 JLINK_ReadMemU32(0xE0001004, 0x0001 Items, ...) -- CPU_ReadMem(4 bytes @ 0xE0001004) - Data: BB 62 8D AC  returns 0x01 (0000ms, 0689ms total)
T2F30 100:460 JLINK_ReadMem (0x20000000, 0x0004 Bytes, ...) -- CPU_ReadMem(64 bytes @ 0x20000000) -- Updating C cache (64 bytes @ 0x20000000) -- Read from C cache (4 bytes @ 0x20000000) - Data: FF 0F 00 00  returns 0x00 (0001ms, 0690ms total)
T2F30 100:462 JLINK_ReadMem (0x20000008, 0x0004 Bytes, ...) -- Read from C cache (4 bytes @ 0x20000008) - Data: FE 0F 00 00  returns 0x00 (0000ms, 0690ms total)
T2F30 100:463 JLINK_ReadMem (0x40012400, 0x004C Bytes, ...) -- CPU_ReadMem(76 bytes @ 0x40012400) - Data: 12 00 00 00 00 00 00 00 03 00 1E 00 00 00 00 00 ...  returns 0x00 (0001ms, 0691ms total)
T2F30 100:464 JLINK_ReadMem (0x4001244C, 0x0004 Bytes, ...) -- CPU_ReadMem(4 bytes @ 0x4001244C) - Data: FF 0F 00 00  returns 0x00 (0001ms, 0692ms total)
T2F30 100:473 JLINK_ReadMem (0x08000440, 0x003C Bytes, ...) -- CPU_ReadMem(64 bytes @ 0x08000440) -- Updating C cache (64 bytes @ 0x08000440) -- Read from C cache (60 bytes @ 0x08000440) - Data: 00 E0 40 1E 00 28 FC D1 70 47 00 00 08 B5 01 21 ...  returns 0x00 (0001ms, 0693ms total)
T2F30 103:529 JLINK_Close() -- CPU_ReadMem(4 bytes @ 0xE0001000) >0x42 TIF> >0x28 TIF> >0x0D TIF> >0x21 TIF> (0003ms, 0696ms total)
T2F30 103:529  (0003ms, 0696ms total)
T2F30 103:529 Closed (0003ms, 0696ms total)
